{
    "Version": "2012-10-17",
    "Statement": [
  {
            "Sid": "DenyEverythingExceptForBelowUnlessMFA",
            "Effect": "Deny",
            "NotAction": [
                "iam:ListAccountAliases",
                "iam:ListUsers",
                "iam:GetAccountSummary",
                "iam:GetLoginProfile",
                "iam:ListSSHPublicKeys",
                "iam:GetSSHPublicKey",
                "iam:ListAccessKeys",
                "iam:GetAccessKeyLastUsed",
                "iam:CreateLoginProfile",
                "iam:DeleteLoginProfile",
                "iam:UpdateLoginProfile",
                "iam:ChangePassword",
                "iam:UploadSSHPublicKey",
                "iam:UpdateSSHPublicKey",
                "iam:DeleteSSHPublicKey",
                "iam:CreateAccessKey",
                "iam:UpdateAccessKey",
                "iam:DeleteAccessKey",
                "iam:ListVirtualMFADevices",
                "iam:ListMFADevices",
                "iam:CreateVirtualMFADevice",
                "iam:DeactivateMFADevice",
                "iam:DeleteVirtualMFADevice",
                "iam:EnableMFADevice",
                "iam:ResyncMFADevice"
            ],
            "Resource": "*",
            "Condition": {
                "Null": {
                    "aws:MultiFactorAuthAge": "true"
                }
            }
        },
        {
            "Sid": "DenyIamAccessToOtherAccountsUnlessMFA",
            "Effect": "Deny",
            "Action": [
                "iam:GetAccountSummary",
                "iam:GetLoginProfile",
                "iam:ListSSHPublicKeys",
                "iam:GetSSHPublicKey",
                "iam:ListAccessKeys",
                "iam:GetAccessKeyLastUsed",
                "iam:CreateLoginProfile",
                "iam:DeleteLoginProfile",
                "iam:UpdateLoginProfile",
                "iam:ChangePassword",
                "iam:UploadSSHPublicKey",
                "iam:UpdateSSHPublicKey",
                "iam:DeleteSSHPublicKey",
                "iam:CreateAccessKey",
                "iam:UpdateAccessKey",
                "iam:DeleteAccessKey",
                "iam:EnableMFADevice",
                "iam:ResyncMFADevice"
            ],
            "NotResource": [
                "arn:aws:iam::982752912334:user/${aws:username}"
            ],
            "Condition": {
                "Null": {
                    "aws:MultiFactorAuthAge": "true"
                }
      }
  },
        {
            "Sid": "DenyIamAccessToOtherMFAsUnlessMFA",
            "Effect": "Deny",
            "Action": [
                "iam:CreateVirtualMFADevice",
                "iam:DeactivateMFADevice",
                "iam:DeleteVirtualMFADevice"
            ],
            "NotResource": [
                "arn:aws:iam::982752912334:mfa/${aws:username}"
            ],
            "Condition": {
                "Null": {
                    "aws:MultiFactorAuthAge": "true"
                }
            }
        }
    ]
}
